{
  "totalPages": 9,
  "totalElements": 18,
  "last": false,
  "numberOfElements": 2,
  "number": 1,
  "first": false,
  "size": 2,
  "empty": false,
  "pageable": {
    "pageNumber": 1,
    "pageSize": 2,
    "offset": 2,
    "paged": true,
    "unpaged": false,
    "sort": {
      "unsorted": false,
      "sorted": true,
      "empty": false
    }
  },
  "sort": {
    "unsorted": false,
    "sorted": true,
    "empty": false
  },
  "content": [
    {
      "accountId": "A-CCT1234",
      "version": 14,
      "description": "Cloning version 9 with all rules enabled",
      "state": "DEPRECATED",
      "rulesCount": 1,
      "createdBy": "jperez",
      "createdTimestamp": "2022-08-15T21:08:02.000+00:00",
      "updatedBy": "mrossi",
      "updatedTimestamp": "2023-07-20T00:05:30.000+00:00",
      "links": [
        {
          "rel": "self",
          "href": "versions/14"
        }
      ]
    },
    {
      "accountId": "A-CCT9012",
      "version": 15,
      "description": "[clone of v14] Cloning version 9 with all rules enabled",
      "state": "DEPRECATED",
      "rulesCount": 1,
      "createdBy": "jsmith",
      "createdTimestamp": "2023-07-20T00:06:09.000+00:00",
      "updatedBy": "jkowalski",
      "updatedTimestamp": "2023-07-20T00:21:42.000+00:00",
      "links": [
        {
          "rel": "self",
          "href": "versions/15"
        }
      ]
    }
  ]
}
